username,password,supusername,suppassword,engusername,engpassword,qcusername,qcpassword,fdusername,fdpassword,supengineerid,customerfirstname,customerlastname,mobilenumber,emailaddress,flatnumber,apartmentname,streetname,landmark,area,pincode,country,state
iamfd,password,iamsup,password,iameng,password,iamqc,password,iamfd,password,2,Jegadiswaran,Shankar,9952890001,jegadish.s17@gmail.com,11,saisandhya,ganesh st,loc apart,kolathur,600099,india,tamilnadu
iamfd,password,iamsup,password,iameng,password,iamqc,password,iamfd,password,2,Mani,Raj,9952890002,maniraj@gmail.com,12,saisandhya,muruga st,loc apart,korattur,600020,india,tamilnadu
